-------------------------------------------------------------------------------
Test set: com.axonactive.common.resource.i18n.PropertiesMessageServiceTest
-------------------------------------------------------------------------------
Tests run: 5, Failures: 0, Errors: 0, Skipped: 0, Time elapsed: 0.016 sec
