-------------------------------------------------------------------------------
Test set: com.axonactive.common.resource.conf.PropertiesMessageServiceTest
-------------------------------------------------------------------------------
Tests run: 10, Failures: 0, Errors: 0, Skipped: 0, Time elapsed: 0 sec
